<?xml version="1.0" encoding="UTF-8" standalone="no"?>
<!-- Created with Inkscape (http://www.inkscape.org/) -->

<svg
   xmlns:dc="http://purl.org/dc/elements/1.1/"
   xmlns:cc="http://creativecommons.org/ns#"
   xmlns:rdf="http://www.w3.org/1999/02/22-rdf-syntax-ns#"
   xmlns:svg="http://www.w3.org/2000/svg"
   xmlns="http://www.w3.org/2000/svg"
   xmlns:sodipodi="http://sodipodi.sourceforge.net/DTD/sodipodi-0.dtd"
   xmlns:inkscape="http://www.inkscape.org/namespaces/inkscape"
   width="210mm"
   height="297mm"
   viewBox="0 0 210 297"
   version="1.1"
   id="svg1777"
   inkscape:version="0.92.3 (2405546, 2018-03-11)"
   sodipodi:docname="sketch.svg">
  <defs
     id="defs1771" />
  <sodipodi:namedview
     id="base"
     pagecolor="#ffffff"
     bordercolor="#666666"
     borderopacity="1.0"
     inkscape:pageopacity="0.0"
     inkscape:pageshadow="2"
     inkscape:zoom="0.45798115"
     inkscape:cx="7749.173"
     inkscape:cy="-2019.7995"
     inkscape:document-units="mm"
     inkscape:current-layer="layer1"
     showgrid="false"
     inkscape:snap-text-baseline="true"
     inkscape:window-width="1920"
     inkscape:window-height="1016"
     inkscape:window-x="0"
     inkscape:window-y="27"
     inkscape:window-maximized="1"
     showguides="false" />
  <metadata
     id="metadata1774">
    <rdf:RDF>
      <cc:Work
         rdf:about="">
        <dc:format>image/svg+xml</dc:format>
        <dc:type
           rdf:resource="http://purl.org/dc/dcmitype/StillImage" />
        <dc:title />
      </cc:Work>
    </rdf:RDF>
  </metadata>
  <g
     inkscape:label="Layer 1"
     inkscape:groupmode="layer"
     id="layer1">
    <rect
       style="opacity:0;fill:none;fill-opacity:1;stroke:none;stroke-width:0.69999999;stroke-miterlimit:10;stroke-dasharray:none;stroke-opacity:1"
       id="rect2322"
       width="867.83331"
       height="368.90479"
       x="-446.01187"
       y="-454.41666" />
    <rect
       style="opacity:0;fill:#000000;fill-opacity:1;stroke:#000000;stroke-width:1.5;stroke-miterlimit:10;stroke-dasharray:none;stroke-opacity:0.86055779"
       id="rect2324"
       width="502.70834"
       height="317.5"
       x="-565.45239"
       y="-395.45236" />
    <rect
       style="opacity:0;fill:#000000;fill-opacity:1;stroke:#000000;stroke-width:1.50000004;stroke-miterlimit:10;stroke-dasharray:none;stroke-opacity:1"
       id="rect2326"
       width="120.16506"
       height="83.1912"
       x="18.486933"
       y="72.84594" />
    <path
       style="fill:#ffffff;fill-opacity:1;stroke:#000000;stroke-width:0.52916682;stroke-miterlimit:4;stroke-dasharray:none"
       d="m 1639.0122,708.51794 c -0.1998,1.12564 1.2736,5.01534 3.7206,9.82186 0.5865,1.15202 1.3461,2.83515 1.6879,3.74016 0.3419,0.90515 0.8552,2.01969 1.1407,2.47678 0.2853,0.45709 0.6426,1.26491 0.7936,1.79531 0.1515,0.53026 0.4948,1.38057 0.7638,1.89001 0.7612,1.44152 0.6418,2.30599 -0.5451,3.94982 -0.5687,0.78755 -1.2152,1.85362 -1.4368,2.36917 -0.2226,0.51582 -0.97,1.84363 -1.6634,2.95108 -0.6928,1.10746 -1.3968,2.29586 -1.5634,2.64104 -0.1669,0.3449 -0.833,1.51956 -1.4807,2.60966 -0.6477,1.09051 -1.5108,2.61077 -1.9181,3.3786 -0.4072,0.76769 -0.8408,1.55857 -0.9638,1.75754 -0.1208,0.1998 -0.4064,0.80227 -0.6299,1.34031 0,0 -14.2409,5.08518 -10.1574,-2.62438 0.8052,-1.65479 4.434,-7.67915 6.1281,-10.17287 1.6416,-2.41666 2.4951,-4.1935 2.3651,-4.92579 -0.067,-0.36795 -0.7696,-1.86737 -1.5651,-3.33195 -0.7956,-1.46485 -1.9246,-3.87526 -2.5093,-5.35635 -1.6778,-4.2521 -3.864,-9.69079 -4.7854,-11.90543 l -0.8451,-2.03163 0.7346,-1.55899 c 0,0 2.9083,-6.09017 12.7291,1.18605 z"
       id="path1418-3-8-6"
       inkscape:connector-curvature="0"
       sodipodi:nodetypes="ccsscccccscsccccccccscc" />
    <rect
       style="opacity:1;fill:none;fill-opacity:1;stroke:#000000;stroke-width:0.58218384;stroke-linecap:round;stroke-linejoin:miter;stroke-miterlimit:4;stroke-dasharray:none;stroke-opacity:1"
       id="rect1223"
       width="555.62164"
       height="346.03546"
       x="1315.0605"
       y="690.49084" />
    <flowRoot
       xml:space="preserve"
       id="flowRoot2343"
       style="font-style:normal;font-weight:normal;font-size:40px;line-height:1.25;font-family:sans-serif;letter-spacing:0px;word-spacing:0px;fill:#000000;fill-opacity:1;stroke:none"
       transform="matrix(0.53598683,0,0,0.53598683,-1493.803,-794.90703)"><flowRegion
         id="flowRegion2345"><rect
           id="rect2347"
           width="4631.8945"
           height="1210.4684"
           x="5422.4043"
           y="2901.1672" /></flowRegion><flowPara
         id="flowPara2349"
         style="font-style:normal;font-variant:normal;font-weight:normal;font-stretch:normal;font-size:47.38922501px;font-family:Savate;-inkscape-font-specification:'Savate, Normal';font-variant-ligatures:normal;font-variant-caps:normal;font-variant-numeric:normal;font-feature-settings:normal;text-align:start;writing-mode:lr-tb;text-anchor:start">Diversions: an introduction</flowPara></flowRoot>    <flowRoot
       xml:space="preserve"
       id="flowRoot850"
       style="font-style:normal;font-weight:normal;font-size:40px;line-height:1.25;font-family:sans-serif;letter-spacing:0px;word-spacing:0px;fill:#000000;fill-opacity:1;stroke:none"
       transform="matrix(0.26458333,0,0,0.26458333,0,10.583333)"><flowRegion
         id="flowRegion852"><rect
           id="rect854"
           width="1516.738"
           height="852.96796"
           x="5360.4824"
           y="3013.4272" /></flowRegion><flowPara
         id="flowPara856"
         style="font-style:normal;font-variant:normal;font-weight:normal;font-stretch:normal;font-size:42.66666794px;line-height:3.77952766px;font-family:sans-serif;-inkscape-font-specification:'sans-serif, Normal';font-variant-ligatures:normal;font-variant-caps:normal;font-variant-numeric:normal;font-feature-settings:normal;text-align:start;writing-mode:lr-tb;text-anchor:start">DiVersions is inspired by the software-practice of ‘versioning’, as a way to experiment with online collections of cultural institutions. It approaches these collections as potential sites for decolonial and intersectional practice, that could and should allow for conflict, invite collaboration, and make space for other narratives.</flowPara><flowPara
         id="flowPara858"
         style="font-style:normal;font-variant:normal;font-weight:normal;font-stretch:normal;font-size:42.66666794px;line-height:3.77952766px;font-family:sans-serif;-inkscape-font-specification:'sans-serif, Normal';font-variant-ligatures:normal;font-variant-caps:normal;font-variant-numeric:normal;font-feature-settings:normal;text-align:start;writing-mode:lr-tb;text-anchor:start" /><flowPara
         id="flowPara860"
         style="font-style:normal;font-variant:normal;font-weight:normal;font-stretch:normal;font-size:42.66666794px;line-height:3.77952766px;font-family:sans-serif;-inkscape-font-specification:'sans-serif, Normal';font-variant-ligatures:normal;font-variant-caps:normal;font-variant-numeric:normal;font-feature-settings:normal;text-align:start;writing-mode:lr-tb;text-anchor:start">DiVersions asks questions such as: How can different orders coexist in online collections? In what way do we make room for material and immaterial heritage of the future, for things that are felt to be beyond the scope of museums and archives, or for other things that are consciously being ignored? How can these digital environments allow us to open up a discussion on relations between categorisation, colonisation and heritage? How can online collections accommodate radically different, and sometimes opposing perspectives?</flowPara><flowPara
         id="flowPara862"
         style="font-style:normal;font-variant:normal;font-weight:normal;font-stretch:normal;font-size:42.66666794px;line-height:3.77952766px;font-family:sans-serif;-inkscape-font-specification:'sans-serif, Normal';font-variant-ligatures:normal;font-variant-caps:normal;font-variant-numeric:normal;font-feature-settings:normal;text-align:start;writing-mode:lr-tb;text-anchor:start" /><flowPara
         id="flowPara864"
         style="font-style:normal;font-variant:normal;font-weight:normal;font-stretch:normal;font-size:42.66666794px;line-height:1.25;font-family:sans-serif;-inkscape-font-specification:'sans-serif, Normal';font-variant-ligatures:normal;font-variant-caps:normal;font-variant-numeric:normal;font-feature-settings:normal;text-align:start;writing-mode:lr-tb;text-anchor:start"><flowSpan
   style="font-size:42.66666794px;line-height:3.77952766px"
   id="flowSpan870">We organised the project around seven artistic experiments that evolved in response to specific e-collections such as WikiMedia, the Carmentis database from the Museum for Art and History and the website of Werkplaats immaterieel erfgoed. Using a variety of artistic strategies, the projects test out in practice how techniques and technologies of networked collaboration might generate other imaginations. The projects are collectively </flowSpan>developed in dialogue with each other and in conversation with partner institutions. DiVersions unfolds in two subsequent public installations, first in De Pianofabriek in Brussels and later in De Krook in Ghent. Each of the two versions is accompanied by a version of a publication, a workshop and a public discussion.With the neologism 'DiVersions' we wanted to allude to the possibility that technologies of 'versioning' might foreground divergent histories.[1] Version-control systems, Wikis, etherpads and other digital writing tools save log files and so-called ‘diffs’ routinely, potentially changing linear relations between original and copy, redefining questions of authorship and the archive. Meticulously logged workflows promise to make the process of shared editing transparent since any action can be reversed or repeated at any time; errors or unwanted inputs can be later corrected. Even if the conventional narrative of 'versioning' is one of streamlining collaboration and producing consensus, these techniques and technologies inherently pay attention to difference. In Dutch, this became 'di-versies' as a play on divergent or diverse versions. Translated to English and French, DiVersions also evokes 'diversity', a term that especially in institutional contexts started to circulate as a blanket term for covering up issues of inequality and oppression.[2]. It is for this reason that we decided to explicitly articulate the project as a decolonial and intersectional practice. </flowPara><flowPara
         id="flowPara866"
         style="font-style:normal;font-variant:normal;font-weight:normal;font-stretch:normal;font-size:42.66666794px;line-height:1.25;font-family:sans-serif;-inkscape-font-specification:'sans-serif, Normal';font-variant-ligatures:normal;font-variant-caps:normal;font-variant-numeric:normal;font-feature-settings:normal;text-align:start;writing-mode:lr-tb;text-anchor:start" /><flowPara
         id="flowPara868"
         style="font-style:normal;font-variant:normal;font-weight:normal;font-stretch:normal;font-size:42.66666794px;line-height:1.25;font-family:sans-serif;-inkscape-font-specification:'sans-serif, Normal';font-variant-ligatures:normal;font-variant-caps:normal;font-variant-numeric:normal;font-feature-settings:normal;text-align:start;writing-mode:lr-tb;text-anchor:start" /></flowRoot>    <path
       style="fill:#ffffff;fill-opacity:1;stroke:#000000;stroke-width:0.52916682;stroke-miterlimit:4;stroke-dasharray:none"
       d="m 1640.5998,708.51794 c -0.1998,1.12564 1.2736,5.01534 3.7206,9.82186 0.5865,1.15202 1.3461,2.83515 1.6879,3.74016 0.3419,0.90515 0.8552,2.01969 1.1407,2.47678 0.2853,0.45709 0.6426,1.26491 0.7936,1.79531 0.1515,0.53026 0.4948,1.38057 0.7638,1.89001 0.7612,1.44152 0.6418,2.30599 -0.5451,3.94982 -0.5687,0.78755 -1.2152,1.85362 -1.4368,2.36917 -0.2226,0.51582 -0.97,1.84363 -1.6634,2.95108 -0.6928,1.10746 -1.3968,2.29586 -1.5634,2.64104 -0.1669,0.3449 -0.833,1.51956 -1.4807,2.60966 -0.6477,1.09051 -1.5108,2.61077 -1.9181,3.3786 -0.4072,0.76769 -0.8408,1.55857 -0.9638,1.75754 -0.1208,0.1998 -0.4064,0.80227 -0.6299,1.34031 0,0 -14.2409,5.08518 -10.1574,-2.62438 0.8052,-1.65479 4.434,-7.67915 6.1281,-10.17287 1.6416,-2.41666 2.4951,-4.1935 2.3651,-4.92579 -0.067,-0.36795 -0.7696,-1.86737 -1.5651,-3.33195 -0.7956,-1.46485 -1.9246,-3.87526 -2.5093,-5.35635 -1.6778,-4.2521 -3.864,-9.69079 -4.7854,-11.90543 l -0.8451,-2.03163 0.7346,-1.55899 c 0,0 2.9083,-6.09017 12.7291,1.18605 z"
       id="path1418-3-8"
       inkscape:connector-curvature="0"
       sodipodi:nodetypes="ccsscccccscsccccccccscc" />
    <path
       style="fill:#ffff0e;fill-opacity:1;stroke:#000000;stroke-width:0.52916676;stroke-miterlimit:4;stroke-dasharray:none"
       d="m 1642.1874,708.51794 c -0.1998,1.12564 1.2736,5.01534 3.7206,9.82186 0.5865,1.15202 1.3461,2.83515 1.6879,3.74016 0.3419,0.90515 0.8552,2.01969 1.1407,2.47678 0.2853,0.45709 0.6426,1.26491 0.7936,1.79531 0.1515,0.53026 0.4948,1.38057 0.7638,1.89001 0.7612,1.44152 0.6418,2.30599 -0.5451,3.94982 -0.5687,0.78755 -1.2152,1.85362 -1.4368,2.36917 -0.2226,0.51582 -0.97,1.84363 -1.6634,2.95108 -0.6928,1.10746 -1.3968,2.29586 -1.5634,2.64104 -0.1669,0.3449 -0.833,1.51956 -1.4807,2.60966 -0.6477,1.09051 -1.5108,2.61077 -1.9181,3.3786 -0.4072,0.76769 -0.8408,1.55857 -0.9638,1.75754 -0.1208,0.1998 -0.4064,0.80227 -0.6299,1.34031 0,0 -14.2409,5.08518 -10.1574,-2.62438 0.8052,-1.65479 4.434,-7.67915 6.1281,-10.17287 1.6416,-2.41666 2.4951,-4.1935 2.3651,-4.92579 -0.067,-0.36795 -0.7696,-1.86737 -1.5651,-3.33195 -0.7956,-1.46485 -1.9246,-3.87526 -2.5093,-5.35635 -1.6778,-4.2521 -3.864,-9.69079 -4.7854,-11.90543 l -0.8451,-2.03163 0.7346,-1.55899 c 0,0 2.9083,-6.09017 12.7291,1.18605 z"
       id="path1418-3"
       inkscape:connector-curvature="0"
       sodipodi:nodetypes="ccsscccccscsccccccccscc" />
    <path
       style="fill:#ffffff;stroke:#000000;stroke-width:0.5291667;stroke-miterlimit:4;stroke-dasharray:none;fill-opacity:1"
       d="m 1647.4791,708.51794 c -0.1998,1.12564 1.2736,5.01534 3.7206,9.82186 0.5865,1.15202 1.3461,2.83515 1.6879,3.74016 0.3419,0.90515 0.8552,2.01969 1.1407,2.47678 0.2853,0.45709 0.6426,1.26491 0.7936,1.79531 0.1515,0.53026 0.4948,1.38057 0.7638,1.89001 0.7612,1.44152 0.6418,2.30599 -0.5451,3.94982 -0.5687,0.78755 -1.2152,1.85362 -1.4368,2.36917 -0.2226,0.51582 -0.97,1.84363 -1.6634,2.95108 -0.6928,1.10746 -1.3968,2.29586 -1.5634,2.64104 -0.1669,0.3449 -0.833,1.51956 -1.4807,2.60966 -0.6477,1.09051 -1.5108,2.61077 -1.9181,3.3786 -0.4072,0.76769 -0.8408,1.55857 -0.9638,1.75754 -0.1208,0.1998 -0.4064,0.80227 -0.6299,1.34031 0,0 -14.2409,5.08518 -10.1574,-2.62438 0.8052,-1.65479 4.434,-7.67915 6.1281,-10.17287 1.6416,-2.41666 2.4951,-4.1935 2.3651,-4.92579 -0.067,-0.36795 -0.7696,-1.86737 -1.5651,-3.33195 -0.7956,-1.46485 -1.9246,-3.87526 -2.5093,-5.35635 -1.6778,-4.2521 -3.864,-9.69079 -4.7854,-11.90543 l -0.8451,-2.03163 0.7346,-1.55899 c 0,0 2.9083,-6.09017 12.7291,1.18605 z"
       id="path1418"
       inkscape:connector-curvature="0"
       sodipodi:nodetypes="ccsscccccscsccccccccscc" />
    <path
       sodipodi:nodetypes="csssc"
       inkscape:connector-curvature="0"
       id="path1592"
       d="m 1779.95,721.89224 c -27.9536,4.98188 -74.3027,0.56816 -106.2352,4.23987 -3.6326,0.41766 -10.8839,0.67689 -20.6462,0.81463 -24.4,0.34406 -127.991,4.31235 -166.4514,3.52453 -15.5415,-0.31838 -52.9184,-6.25027 -52.9184,-6.25027"
       style="font-style:normal;font-weight:normal;font-size:medium;line-height:1.25;font-family:sans-serif;letter-spacing:0px;word-spacing:0px;fill:none;fill-opacity:1;stroke:#000000;stroke-width:1.5;stroke-linecap:butt;stroke-linejoin:miter;stroke-miterlimit:4;stroke-dasharray:none;stroke-opacity:1" />
    <path
       style="fill:#ffffff;stroke:#000000;stroke-width:0.5291667;stroke-miterlimit:4;stroke-dasharray:none"
       d="m 1764.1962,705.27027 c 0.5628,0.76714 0.772,1.14161 2.1512,3.84763 0.3528,0.69258 1.1883,2.17381 1.8561,3.2914 2.9321,4.90649 4.2958,7.78065 4.2958,9.05431 0,0.96653 -1.0098,4.24224 -1.5673,5.08435 -0.2763,0.41752 -0.7634,1.49998 -1.0824,2.405 -0.8262,2.34459 -3.1948,7.68859 -4.1111,9.27535 0,0 15.3763,11.46195 11.4678,3.59063 -0.3674,0 -0.3304,-1.04248 0.076,-2.18409 0.1888,-0.52679 0.84,-2.03469 1.4484,-3.35139 0.6083,-1.31642 1.5922,-3.47079 2.1861,-4.78721 0.5944,-1.3167 1.3615,-2.94373 1.7053,-3.61603 0.8264,-1.61537 2.5684,-6.30484 2.5684,-6.91299 0,-0.26409 -0.3553,-1.09274 -0.7889,-1.84141 -0.9485,-1.6373 -1.6266,-3.03078 -2.0854,-4.28514 -0.1866,-0.51152 -0.5469,-1.21479 -0.7993,-1.5626 -0.2527,-0.34754 -0.8655,-1.40626 -1.3617,-2.35251 -0.496,-0.94625 -0.9939,-1.72047 -1.1064,-1.72047 -0.1138,0 -0.2063,-0.17565 -0.2063,-0.39281 0,-0.21507 -0.2936,-0.78824 -0.653,-1.27171 -1.0239,-1.37835 -1.1092,-1.77379 -0.7305,-3.38707 0,0 -11.6788,-6.11947 -13.8475,-0.26367 0,0.32296 0.2618,0.94431 0.5815,1.38043 z"
       id="path1420"
       inkscape:connector-curvature="0"
       sodipodi:nodetypes="cccssccccccscsccccssccsc" />
    <path
       sodipodi:nodetypes="ccsssccsssscsccscccccccscc"
       inkscape:connector-curvature="0"
       id="path1422"
       d="m 1434.9191,746.43523 c 0.1428,-0.32338 0.8449,-1.46638 0.8449,-1.82433 0,-0.66522 0.9434,-2.98149 1.8702,-4.59338 0.2838,-0.49375 1.6691,-2.62854 3.0777,-4.74418 1.4092,-2.11535 3.0377,-4.74959 3.6194,-5.85357 0.582,-1.10399 1.3196,-2.44651 1.6399,-2.98358 0.3199,-0.53706 0.5816,-1.10065 0.5816,-1.25297 0,-0.27533 -0.3671,-0.78074 -3.3876,-4.66489 -0.874,-1.12412 -2.5799,-3.52481 -3.7907,-5.33511 -4.9623,-7.41937 -6.263,-9.19788 -7.2425,-9.89948 -1.4064,-1.00804 -2.1228,-0.95014 -2.7435,0.22146 -0.2745,0.51929 -0.8928,1.56288 -1.3733,2.31891 -0.4807,0.75617 -1.1482,1.99053 -1.4836,2.74323 -0.3355,0.75256 -0.9656,1.81003 -1.4003,2.34987 -0.435,0.53998 -0.7905,1.22714 -0.7905,1.52706 0,0.50776 1.0206,1.47998 1.5664,1.49206 0.1277,0 0.4653,0.35309 0.7505,0.77839 0.2852,0.42501 1.2371,1.59856 2.1153,2.60743 0.8782,1.00901 2.3459,2.85473 3.2612,4.10159 l 1.6646,2.26684 -0.4658,1.29129 c -0.2563,0.71021 -0.9042,2.18339 -1.4393,3.27404 -0.5354,1.09024 -1.17,2.38611 -1.4102,2.87986 -0.2402,0.49361 -0.4979,0.965 -0.5726,1.04706 -0.2296,0.25367 -2.8364,6.6675 -4.1206,10.1401 -0.9465,3.0941 9.2288,2.1123 9.2288,2.1123 z"
       style="fill:#000000;stroke-width:1" />
    <path
       style="fill:#000000;stroke-width:1"
       d="m 1485.2298,731.05249 c -0.5628,0.76741 -0.7723,1.14175 -2.1515,3.84777 -0.3528,0.69271 -1.1882,2.17367 -1.856,3.2914 -2.9322,4.90663 -4.2958,7.78065 -4.2958,9.05459 0,0 -5.8439,2.34723 -12.6919,-0.49667 0,-0.26422 0.3548,-1.09273 0.7884,-1.8414 0.9485,-1.63731 1.6268,-3.03065 2.0851,-4.28515 0.1868,-0.51179 0.5472,-1.21478 0.7999,-1.5626 0.2527,-0.34753 0.8653,-1.40625 1.3614,-2.35237 0.4959,-0.94625 0.994,-1.72033 1.1064,-1.72033 0.1124,0 0.2042,-0.17786 0.2042,-0.39308 0,-0.21521 0.2935,-0.78824 0.653,-1.27171 1.024,-1.37807 1.1091,-1.77379 0.7302,-3.38679 -0.1844,-0.78672 -1.3329,-4.24544 -2.5516,-7.68679 -1.2191,-3.44081 -2.2163,-6.4341 -2.2163,-6.65168 0,-0.7427 3.4693,-5.32262 5.0496,-6.66542 0.3059,-0.2602 0.5902,-0.73145 0.6319,-1.04733 0.2226,-1.6959 1.1474,-1.7488 2.1237,-0.1208 0.3953,0.65869 1.3005,2.52162 2.0117,4.13976 0.7112,1.61842 1.6012,3.46858 1.9784,4.11214 1.5337,2.61577 3.5118,6.55282 5.0223,9.9964 0.3491,0.7956 0.8966,1.81266 1.2166,2.26003 0.3196,0.44723 0.5814,1.07761 0.5814,1.40057 0,0.32296 -0.2618,0.94417 -0.5814,1.38043 z"
       id="path1424"
       inkscape:connector-curvature="0"
       sodipodi:nodetypes="cccccsccccssscsscccccccsc" />
    <path
       sodipodi:nodetypes="csccscsccsccccccccsccc"
       inkscape:connector-curvature="0"
       id="path1426"
       d="m 1578.187,708.08098 c 0,0.96625 1.0095,4.2421 1.5672,5.08408 0.2764,0.41779 0.7636,1.49998 1.0826,2.40499 0.8257,2.34459 3.1946,7.68887 4.1107,9.27563 1.1694,2.02455 1.1819,2.23116 0.2556,4.14741 -0.4486,0.92792 -1.2253,2.53065 -1.7264,3.5616 -0.501,1.03109 -1.3893,2.64701 -1.9742,3.59076 -1.2645,2.0401 -3.4802,6.73179 -3.6611,7.75177 -3.3274,5.78873 -12.6184,2.40472 -12.6184,2.40472 l -0.8453,-2.03163 0.7346,-1.55913 c 0.4042,-0.85725 0.8805,-1.89542 1.0587,-2.30655 0.1801,-0.41169 1.2529,-2.09065 2.3879,-3.7317 1.1351,-1.64063 2.2143,-3.32375 2.3987,-3.74016 0.884,-1.9983 2.2857,-4.49674 2.5223,-4.49674 0.3674,0 0.3302,-1.04234 -0.076,-2.18409 -0.1888,-0.52651 -0.8403,-2.03469 -1.4487,-3.35125 -0.6082,-1.31656 -1.5919,-3.47079 -2.1861,-4.78721 -0.5941,-1.3167 -1.3615,-2.94387 -1.7053,-3.6159 -0.826,-1.6155 -2.5679,-6.30511 -2.5679,-6.91326 0,-0.26409 0.3548,-1.09274 0.7886,-1.84141 0,0 5.4586,-2.82682 11.9037,2.33807 z"
       style="fill:#000000;stroke-width:1" />
    <path
       sodipodi:nodetypes="cccssccccccscsccccssccsc"
       inkscape:connector-curvature="0"
       id="path1428"
       d="m 1765.7238,705.08255 c 0.5628,0.76713 0.772,1.14189 2.1511,3.84763 0.3529,0.69271 1.1884,2.17381 1.8562,3.2914 2.9321,4.90663 4.2957,7.78093 4.2957,9.05459 0,0.96638 -1.0097,4.24196 -1.5672,5.08407 -0.2764,0.4178 -0.7634,1.49998 -1.0824,2.405 -0.8262,2.34459 -3.1951,7.68887 -4.1112,9.27563 0,0 15.3764,11.46166 11.4676,3.59034 -0.3672,0 -0.3301,-1.04247 0.076,-2.18394 0.1887,-0.52666 0.8399,-2.03483 1.4483,-3.35125 0.6085,-1.3167 1.5924,-3.47094 2.1862,-4.7875 0.5943,-1.31642 1.3614,-2.94358 1.7053,-3.61589 0.8262,-1.6155 2.5682,-6.30497 2.5682,-6.91312 0,-0.26396 -0.355,-1.09274 -0.789,-1.84141 -0.9484,-1.6373 -1.6264,-3.03065 -2.085,-4.28487 -0.1867,-0.51179 -0.547,-1.21478 -0.7997,-1.5626 -0.2527,-0.34781 -0.8653,-1.40626 -1.3615,-2.35251 -0.496,-0.94639 -0.9939,-1.72047 -1.1065,-1.72047 -0.1125,0 -0.2065,-0.17564 -0.2065,-0.3928 0,-0.21522 -0.2936,-0.78852 -0.6528,-1.27199 -1.0239,-1.37807 -1.1093,-1.77379 -0.7305,-3.38679 0,0 -11.679,-6.11947 -13.8476,-0.26368 0,0.32296 0.2615,0.94403 0.5814,1.3803 z"
       style="fill:#000000;stroke-width:1" />
    <path
       style="fill:#000000;stroke-width:1;fill-opacity:1"
       d="m 1663.7742,704.4058 c -0.3356,0.80838 -0.3613,1.08093 -0.147,1.56677 0.1427,0.32323 0.2596,0.88113 0.2596,1.23922 0,0.66522 0.9433,2.98135 1.87,4.59311 0.284,0.49374 1.6694,2.62867 3.0777,4.74417 1.4095,2.11563 3.0379,4.74987 3.6199,5.85385 0.5817,1.10385 1.3194,2.44651 1.6394,2.9833 0.3199,0.53707 0.5817,1.10065 0.5817,1.25297 0,0.27561 -0.3669,0.78074 -3.3877,4.66503 -0.874,1.12412 -2.5799,3.52495 -3.7905,5.33511 -4.9625,7.41937 -6.2631,9.19774 -7.2425,9.89962 -1.4063,1.00804 -2.1227,0.95 -2.7432,-0.22146 -0.2749,-0.51902 -0.893,-1.5626 -1.3735,-2.31905 -0.4809,-0.75603 -1.1483,-1.99067 -1.4838,-2.74309 -0.3353,-0.7527 -0.9654,-1.81003 -1.4001,-2.34987 -0.435,-0.53998 -0.7905,-1.22714 -0.7905,-1.52706 0,-0.50777 1.0203,-1.47998 1.5661,-1.49206 0.125,0 0.4653,-0.35337 0.7505,-0.77839 0.2852,-0.42501 1.2374,-1.59856 2.1159,-2.60743 0.8779,-1.00915 2.3453,-2.85473 3.2606,-4.10159 l 1.6646,-2.26684 -0.4658,-1.29143 c -0.2562,-0.71007 -0.9039,-2.18339 -1.4392,-3.27363 -0.5355,-1.09051 -1.1701,-2.38638 -1.4103,-2.88013 -0.2399,-0.49361 -0.4976,-0.965 -0.5726,-1.04706 -0.2293,-0.25339 -2.8364,-6.6675 -4.1203,-10.13982 -1.3349,-3.6102 -1.3275,-3.39304 -0.1955,-5.71834 0,0 7.8404,-0.65647 10.1575,2.6241 z"
       id="path1430"
       inkscape:connector-curvature="0"
       sodipodi:nodetypes="cccsssccsssscsccscccccccsccc" />
    <path
       sodipodi:nodetypes="ccsscccccscsccccccccscc"
       inkscape:connector-curvature="0"
       id="path1432"
       d="m 1648.5446,708.51794 c -0.1976,1.12564 1.2737,5.01534 3.7206,9.82186 0.5865,1.15202 1.3461,2.83515 1.688,3.74016 0.3421,0.90515 0.8551,2.01969 1.1406,2.47678 0.2853,0.45709 0.6429,1.26491 0.7939,1.79531 0.1515,0.53026 0.4946,1.38057 0.7638,1.89001 0.7609,1.44152 0.6415,2.30599 -0.5451,3.94982 -0.5687,0.78755 -1.2153,1.85362 -1.4371,2.36917 -0.2224,0.51582 -0.97,1.84363 -1.6631,2.95108 -0.6931,1.10746 -1.3968,2.29586 -1.5634,2.64104 -0.1669,0.3449 -0.8332,1.51956 -1.481,2.60966 -0.6477,1.09051 -1.5105,2.61077 -1.9178,3.3786 -0.4075,0.76769 -0.8411,1.55857 -0.9641,1.75754 -0.1208,0.1998 -0.4064,0.80227 -0.6297,1.34031 0,0 -14.2408,5.08518 -10.1573,-2.62438 0.8052,-1.65479 4.4337,-7.67915 6.1278,-10.17287 1.6419,-2.41666 2.4951,-4.1935 2.3653,-4.92579 -0.065,-0.36795 -0.7698,-1.86737 -1.5653,-3.33195 -0.7954,-1.46485 -1.9245,-3.87526 -2.5092,-5.35635 -1.6779,-4.2521 -3.8641,-9.69079 -4.7853,-11.90543 l -0.8453,-2.03163 0.7346,-1.55899 c 0,0 2.9083,-6.09017 12.7291,1.18605 z"
       style="fill:#000000;stroke-width:1;fill-opacity:1" />
    <rect
       style="opacity:1;fill:none;fill-opacity:1;stroke:#000000;stroke-width:0.58218384;stroke-linecap:round;stroke-linejoin:miter;stroke-miterlimit:4;stroke-dasharray:none;stroke-opacity:1"
       id="rect1223-4"
       width="555.62164"
       height="346.03546"
       x="1912.8907"
       y="690.14459" />
    <flowRoot
       xml:space="preserve"
       id="flowRoot2343-3"
       style="font-style:normal;font-weight:normal;font-size:40px;line-height:1.25;font-family:sans-serif;letter-spacing:0px;word-spacing:0px;fill:#000000;fill-opacity:1;stroke:none"
       transform="matrix(0.53598683,0,0,0.53598683,-889.43679,-792.52188)"><flowRegion
         id="flowRegion2345-7"><rect
           id="rect2347-1"
           width="4631.8945"
           height="1210.4684"
           x="5422.4043"
           y="2901.1672" /></flowRegion><flowPara
         id="flowPara2349-3"
         style="font-style:normal;font-variant:normal;font-weight:normal;font-stretch:normal;font-size:47.38922501px;font-family:Steps-Mono;-inkscape-font-specification:Steps-Mono;font-variant-ligatures:normal;font-variant-caps:normal;font-variant-numeric:normal;font-feature-settings:normal;text-align:start;writing-mode:lr-tb;text-anchor:start">Diversions: an introduction</flowPara></flowRoot>    <flowRoot
       xml:space="preserve"
       id="flowRoot850-8"
       style="font-style:normal;font-weight:normal;font-size:40px;line-height:1.25;font-family:sans-serif;letter-spacing:0px;word-spacing:0px;fill:#000000;fill-opacity:1;stroke:none"
       transform="matrix(0.26458333,0,0,0.26458333,597.8301,10.237069)"><flowRegion
         id="flowRegion852-0"><rect
           id="rect854-9"
           width="1516.738"
           height="852.96796"
           x="5360.4824"
           y="3013.4272" /></flowRegion><flowPara
         id="flowPara856-7"
         style="font-style:normal;font-variant:normal;font-weight:normal;font-stretch:normal;font-size:42.66666794px;line-height:3.77952766px;font-family:sans-serif;-inkscape-font-specification:'sans-serif, Normal';font-variant-ligatures:normal;font-variant-caps:normal;font-variant-numeric:normal;font-feature-settings:normal;text-align:start;writing-mode:lr-tb;text-anchor:start">DiVersions is inspired by the software-practice of ‘versioning’, as a way to experiment with online collections of cultural institutions. It approaches these collections as potential sites for decolonial and intersectional practice, that could and should allow for conflict, invite collaboration, and make space for other narratives.</flowPara><flowPara
         id="flowPara858-9"
         style="font-style:normal;font-variant:normal;font-weight:normal;font-stretch:normal;font-size:42.66666794px;line-height:3.77952766px;font-family:sans-serif;-inkscape-font-specification:'sans-serif, Normal';font-variant-ligatures:normal;font-variant-caps:normal;font-variant-numeric:normal;font-feature-settings:normal;text-align:start;writing-mode:lr-tb;text-anchor:start" /><flowPara
         id="flowPara860-9"
         style="font-style:normal;font-variant:normal;font-weight:normal;font-stretch:normal;font-size:42.66666794px;line-height:3.77952766px;font-family:sans-serif;-inkscape-font-specification:'sans-serif, Normal';font-variant-ligatures:normal;font-variant-caps:normal;font-variant-numeric:normal;font-feature-settings:normal;text-align:start;writing-mode:lr-tb;text-anchor:start">DiVersions asks questions such as: How can different orders coexist in online collections? In what way do we make room for material and immaterial heritage of the future, for things that are felt to be beyond the scope of museums and archives, or for other things that are consciously being ignored? How can these digital environments allow us to open up a discussion on relations between categorisation, colonisation and heritage? How can online collections accommodate radically different, and sometimes opposing perspectives?</flowPara><flowPara
         id="flowPara862-3"
         style="font-style:normal;font-variant:normal;font-weight:normal;font-stretch:normal;font-size:42.66666794px;line-height:3.77952766px;font-family:sans-serif;-inkscape-font-specification:'sans-serif, Normal';font-variant-ligatures:normal;font-variant-caps:normal;font-variant-numeric:normal;font-feature-settings:normal;text-align:start;writing-mode:lr-tb;text-anchor:start" /><flowPara
         id="flowPara864-2"
         style="font-style:normal;font-variant:normal;font-weight:normal;font-stretch:normal;font-size:42.66666794px;line-height:1.25;font-family:sans-serif;-inkscape-font-specification:'sans-serif, Normal';font-variant-ligatures:normal;font-variant-caps:normal;font-variant-numeric:normal;font-feature-settings:normal;text-align:start;writing-mode:lr-tb;text-anchor:start"><flowSpan
   style="font-size:42.66666794px;line-height:3.77952766px"
   id="flowSpan870-4">We organised the project around seven artistic experiments that evolved in response to specific e-collections such as WikiMedia, the Carmentis database from the Museum for Art and History and the website of Werkplaats immaterieel erfgoed. Using a variety of artistic strategies, the projects test out in practice how techniques and technologies of networked collaboration might generate other imaginations. The projects are collectively </flowSpan>developed in dialogue with each other and in conversation with partner institutions. DiVersions unfolds in two subsequent public installations, first in De Pianofabriek in Brussels and later in De Krook in Ghent. Each of the two versions is accompanied by a version of a publication, a workshop and a public discussion.With the neologism 'DiVersions' we wanted to allude to the possibility that technologies of 'versioning' might foreground divergent histories.[1] Version-control systems, Wikis, etherpads and other digital writing tools save log files and so-called ‘diffs’ routinely, potentially changing linear relations between original and copy, redefining questions of authorship and the archive. Meticulously logged workflows promise to make the process of shared editing transparent since any action can be reversed or repeated at any time; errors or unwanted inputs can be later corrected. Even if the conventional narrative of 'versioning' is one of streamlining collaboration and producing consensus, these techniques and technologies inherently pay attention to difference. In Dutch, this became 'di-versies' as a play on divergent or diverse versions. Translated to English and French, DiVersions also evokes 'diversity', a term that especially in institutional contexts started to circulate as a blanket term for covering up issues of inequality and oppression.[2]. It is for this reason that we decided to explicitly articulate the project as a decolonial and intersectional practice. </flowPara><flowPara
         id="flowPara866-3"
         style="font-style:normal;font-variant:normal;font-weight:normal;font-stretch:normal;font-size:42.66666794px;line-height:1.25;font-family:sans-serif;-inkscape-font-specification:'sans-serif, Normal';font-variant-ligatures:normal;font-variant-caps:normal;font-variant-numeric:normal;font-feature-settings:normal;text-align:start;writing-mode:lr-tb;text-anchor:start" /><flowPara
         id="flowPara868-7"
         style="font-style:normal;font-variant:normal;font-weight:normal;font-stretch:normal;font-size:42.66666794px;line-height:1.25;font-family:sans-serif;-inkscape-font-specification:'sans-serif, Normal';font-variant-ligatures:normal;font-variant-caps:normal;font-variant-numeric:normal;font-feature-settings:normal;text-align:start;writing-mode:lr-tb;text-anchor:start" /></flowRoot>    <path
       style="fill:#ffffff;fill-opacity:1;stroke:#000000;stroke-width:0.52916682;stroke-miterlimit:4;stroke-dasharray:none"
       d="m 2226.4953,708.06267 c -0.1998,1.12564 1.2736,5.01534 3.7206,9.82186 0.5865,1.15202 1.3461,2.83515 1.6879,3.74016 0.3419,0.90515 0.8552,2.01969 1.1407,2.47678 0.2853,0.45709 0.6426,1.26491 0.7936,1.79531 0.1515,0.53026 0.4948,1.38057 0.7638,1.89001 0.7612,1.44152 0.6418,2.30599 -0.5451,3.94982 -0.5687,0.78755 -1.2152,1.85362 -1.4368,2.36917 -0.2226,0.51582 -0.97,1.84363 -1.6634,2.95108 -0.6928,1.10746 -1.3968,2.29586 -1.5634,2.64104 -0.1669,0.3449 -0.833,1.51956 -1.4807,2.60966 -0.6477,1.09051 -1.5108,2.61077 -1.9181,3.3786 -0.4072,0.76769 -0.8408,1.55857 -0.9638,1.75754 -0.1208,0.1998 -0.4064,0.80227 -0.6299,1.34031 0,0 -14.2409,5.08518 -10.1574,-2.62438 0.8052,-1.65479 4.434,-7.67915 6.1281,-10.17287 1.6416,-2.41666 2.4951,-4.1935 2.3651,-4.92579 -0.067,-0.36795 -0.7696,-1.86737 -1.5651,-3.33195 -0.7956,-1.46485 -1.9246,-3.87526 -2.5093,-5.35635 -1.6778,-4.2521 -3.864,-9.69079 -4.7854,-11.90543 l -0.8451,-2.03163 0.7346,-1.55899 c 0,0 2.9083,-6.09017 12.7291,1.18605 z"
       id="path1418-3-8-6-0"
       inkscape:connector-curvature="0"
       sodipodi:nodetypes="ccsscccccscsccccccccscc" />
    <path
       style="fill:#ffffff;fill-opacity:1;stroke:#000000;stroke-width:0.52916682;stroke-miterlimit:4;stroke-dasharray:none"
       d="m 2228.0829,708.06267 c -0.1998,1.12564 1.2736,5.01534 3.7206,9.82186 0.5865,1.15202 1.3461,2.83515 1.6879,3.74016 0.3419,0.90515 0.8552,2.01969 1.1407,2.47678 0.2853,0.45709 0.6426,1.26491 0.7936,1.79531 0.1515,0.53026 0.4948,1.38057 0.7638,1.89001 0.7612,1.44152 0.6418,2.30599 -0.5451,3.94982 -0.5687,0.78755 -1.2152,1.85362 -1.4368,2.36917 -0.2226,0.51582 -0.97,1.84363 -1.6634,2.95108 -0.6928,1.10746 -1.3968,2.29586 -1.5634,2.64104 -0.1669,0.3449 -0.833,1.51956 -1.4807,2.60966 -0.6477,1.09051 -1.5108,2.61077 -1.9181,3.3786 -0.4072,0.76769 -0.8408,1.55857 -0.9638,1.75754 -0.1208,0.1998 -0.4064,0.80227 -0.6299,1.34031 0,0 -14.2409,5.08518 -10.1574,-2.62438 0.8052,-1.65479 4.434,-7.67915 6.1281,-10.17287 1.6416,-2.41666 2.4951,-4.1935 2.3651,-4.92579 -0.067,-0.36795 -0.7696,-1.86737 -1.5651,-3.33195 -0.7956,-1.46485 -1.9246,-3.87526 -2.5093,-5.35635 -1.6778,-4.2521 -3.864,-9.69079 -4.7854,-11.90543 l -0.8451,-2.03163 0.7346,-1.55899 c 0,0 2.9083,-6.09017 12.7291,1.18605 z"
       id="path1418-3-8-5"
       inkscape:connector-curvature="0"
       sodipodi:nodetypes="ccsscccccscsccccccccscc" />
    <path
       style="fill:#ffff0e;fill-opacity:1;stroke:#000000;stroke-width:0.52916682;stroke-miterlimit:4;stroke-dasharray:none"
       d="m 2229.6705,708.06267 c -0.1998,1.12564 1.2736,5.01534 3.7206,9.82186 0.5865,1.15202 1.3461,2.83515 1.6879,3.74016 0.3419,0.90515 0.8552,2.01969 1.1407,2.47678 0.2853,0.45709 0.6426,1.26491 0.7936,1.79531 0.1515,0.53026 0.4948,1.38057 0.7638,1.89001 0.7612,1.44152 0.6418,2.30599 -0.5451,3.94982 -0.5687,0.78755 -1.2152,1.85362 -1.4368,2.36917 -0.2226,0.51582 -0.97,1.84363 -1.6634,2.95108 -0.6928,1.10746 -1.3968,2.29586 -1.5634,2.64104 -0.1669,0.3449 -0.833,1.51956 -1.4807,2.60966 -0.6477,1.09051 -1.5108,2.61077 -1.9181,3.3786 -0.4072,0.76769 -0.8408,1.55857 -0.9638,1.75754 -0.1208,0.1998 -0.4064,0.80227 -0.6299,1.34031 0,0 -14.2409,5.08518 -10.1574,-2.62438 0.8052,-1.65479 4.434,-7.67915 6.1281,-10.17287 1.6416,-2.41666 2.4951,-4.1935 2.3651,-4.92579 -0.067,-0.36795 -0.7696,-1.86737 -1.5651,-3.33195 -0.7956,-1.46485 -1.9246,-3.87526 -2.5093,-5.35635 -1.6778,-4.2521 -3.864,-9.69079 -4.7854,-11.90543 l -0.8451,-2.03163 0.7346,-1.55899 c 0,0 2.9083,-6.09017 12.7291,1.18605 z"
       id="path1418-3-1"
       inkscape:connector-curvature="0"
       sodipodi:nodetypes="ccsscccccscsccccccccscc" />
    <path
       style="fill:#ffffff;fill-opacity:1;stroke:#000000;stroke-width:0.52916676;stroke-miterlimit:4;stroke-dasharray:none"
       d="m 2234.9622,708.06267 c -0.1998,1.12564 1.2736,5.01534 3.7206,9.82186 0.5865,1.15202 1.3461,2.83515 1.6879,3.74016 0.3419,0.90515 0.8552,2.01969 1.1407,2.47678 0.2853,0.45709 0.6426,1.26491 0.7936,1.79531 0.1515,0.53026 0.4948,1.38057 0.7638,1.89001 0.7612,1.44152 0.6418,2.30599 -0.5451,3.94982 -0.5687,0.78755 -1.2152,1.85362 -1.4368,2.36917 -0.2226,0.51582 -0.97,1.84363 -1.6634,2.95108 -0.6928,1.10746 -1.3968,2.29586 -1.5634,2.64104 -0.1669,0.3449 -0.833,1.51956 -1.4807,2.60966 -0.6477,1.09051 -1.5108,2.61077 -1.9181,3.3786 -0.4072,0.76769 -0.8408,1.55857 -0.9638,1.75754 -0.1208,0.1998 -0.4064,0.80227 -0.6299,1.34031 0,0 -14.2409,5.08518 -10.1574,-2.62438 0.8052,-1.65479 4.434,-7.67915 6.1281,-10.17287 1.6416,-2.41666 2.4951,-4.1935 2.3651,-4.92579 -0.067,-0.36795 -0.7696,-1.86737 -1.5651,-3.33195 -0.7956,-1.46485 -1.9246,-3.87526 -2.5093,-5.35635 -1.6778,-4.2521 -3.864,-9.69079 -4.7854,-11.90543 l -0.8451,-2.03163 0.7346,-1.55899 c 0,0 2.9083,-6.09017 12.7291,1.18605 z"
       id="path1418-1"
       inkscape:connector-curvature="0"
       sodipodi:nodetypes="ccsscccccscsccccccccscc" />
    <path
       sodipodi:nodetypes="csssc"
       inkscape:connector-curvature="0"
       id="path1592-0"
       d="m 2367.4331,721.43697 c -27.9536,4.98188 -74.3027,0.56816 -106.2352,4.23987 -3.6326,0.41766 -10.8839,0.67689 -20.6462,0.81463 -24.4,0.34406 -127.991,4.31235 -166.4514,3.52453 -15.5415,-0.31838 -52.9184,-6.25027 -52.9184,-6.25027"
       style="font-style:normal;font-weight:normal;font-size:medium;line-height:1.25;font-family:sans-serif;letter-spacing:0px;word-spacing:0px;fill:none;fill-opacity:1;stroke:#000000;stroke-width:1.5;stroke-linecap:butt;stroke-linejoin:miter;stroke-miterlimit:4;stroke-dasharray:none;stroke-opacity:1" />
    <path
       style="fill:#ffffff;stroke:#000000;stroke-width:0.52916676;stroke-miterlimit:4;stroke-dasharray:none"
       d="m 2351.6793,704.815 c 0.5628,0.76714 0.772,1.14161 2.1512,3.84763 0.3528,0.69258 1.1883,2.17381 1.8561,3.2914 2.9321,4.90649 4.2958,7.78065 4.2958,9.05431 0,0.96653 -1.0098,4.24224 -1.5673,5.08435 -0.2763,0.41752 -0.7634,1.49998 -1.0824,2.405 -0.8262,2.34459 -3.1948,7.68859 -4.1111,9.27535 0,0 15.3763,11.46195 11.4678,3.59063 -0.3674,0 -0.3304,-1.04248 0.076,-2.18409 0.1888,-0.52679 0.84,-2.03469 1.4484,-3.35139 0.6083,-1.31642 1.5922,-3.47079 2.1861,-4.78721 0.5944,-1.3167 1.3615,-2.94373 1.7053,-3.61603 0.8264,-1.61537 2.5684,-6.30484 2.5684,-6.91299 0,-0.26409 -0.3553,-1.09274 -0.7889,-1.84141 -0.9485,-1.6373 -1.6265,-3.03078 -2.0854,-4.28514 -0.1866,-0.51152 -0.5469,-1.21479 -0.7993,-1.5626 -0.2527,-0.34754 -0.8655,-1.40626 -1.3617,-2.35251 -0.496,-0.94625 -0.9939,-1.72047 -1.1064,-1.72047 -0.1138,0 -0.2063,-0.17565 -0.2063,-0.39281 0,-0.21507 -0.2936,-0.78824 -0.653,-1.27171 -1.0239,-1.37835 -1.1092,-1.77379 -0.7305,-3.38707 0,0 -11.6788,-6.11947 -13.8475,-0.26367 0,0.32296 0.2619,0.94431 0.5815,1.38043 z"
       id="path1420-3"
       inkscape:connector-curvature="0"
       sodipodi:nodetypes="cccssccccccscsccccssccsc" />
    <path
       sodipodi:nodetypes="ccsssccsssscsccscccccccscc"
       inkscape:connector-curvature="0"
       id="path1422-0"
       d="m 2022.4022,745.97996 c 0.1428,-0.32338 0.8449,-1.46638 0.8449,-1.82433 0,-0.66522 0.9434,-2.98149 1.8702,-4.59338 0.2838,-0.49375 1.6691,-2.62854 3.0777,-4.74418 1.4092,-2.11535 3.0377,-4.74959 3.6194,-5.85357 0.582,-1.10399 1.3196,-2.44651 1.6399,-2.98358 0.3199,-0.53706 0.5816,-1.10065 0.5816,-1.25297 0,-0.27533 -0.3671,-0.78074 -3.3876,-4.66489 -0.874,-1.12412 -2.5799,-3.52481 -3.7907,-5.33511 -4.9623,-7.41937 -6.263,-9.19788 -7.2425,-9.89948 -1.4064,-1.00804 -2.1228,-0.95014 -2.7435,0.22146 -0.2745,0.51929 -0.8928,1.56288 -1.3733,2.31891 -0.4807,0.75617 -1.1482,1.99053 -1.4836,2.74323 -0.3355,0.75256 -0.9656,1.81003 -1.4003,2.34987 -0.435,0.53998 -0.7905,1.22714 -0.7905,1.52706 0,0.50776 1.0206,1.47998 1.5664,1.49206 0.1277,0 0.4653,0.35309 0.7505,0.77839 0.2852,0.42501 1.2371,1.59856 2.1153,2.60743 0.8782,1.00901 2.3459,2.85473 3.2612,4.10159 l 1.6646,2.26684 -0.4658,1.29129 c -0.2563,0.71021 -0.9042,2.18339 -1.4393,3.27404 -0.5354,1.09024 -1.17,2.38611 -1.4102,2.87986 -0.2402,0.49361 -0.4979,0.965 -0.5726,1.04706 -0.2296,0.25367 -2.8364,6.6675 -4.1206,10.1401 -0.9465,3.0941 9.2288,2.1123 9.2288,2.1123 z"
       style="fill:#000000;stroke-width:1" />
    <path
       style="fill:#000000;stroke-width:1"
       d="m 2072.7129,730.59722 c -0.5628,0.76741 -0.7723,1.14175 -2.1515,3.84777 -0.3528,0.69271 -1.1882,2.17367 -1.856,3.2914 -2.9322,4.90663 -4.2958,7.78065 -4.2958,9.05459 0,0 -5.8439,2.34723 -12.6919,-0.49667 0,-0.26422 0.3548,-1.09273 0.7884,-1.8414 0.9485,-1.63731 1.6268,-3.03065 2.0851,-4.28515 0.1868,-0.51179 0.5472,-1.21478 0.7999,-1.5626 0.2527,-0.34753 0.8653,-1.40625 1.3614,-2.35237 0.4959,-0.94625 0.994,-1.72033 1.1064,-1.72033 0.1124,0 0.2042,-0.17786 0.2042,-0.39308 0,-0.21521 0.2935,-0.78824 0.653,-1.27171 1.024,-1.37807 1.1091,-1.77379 0.7302,-3.38679 -0.1844,-0.78672 -1.3329,-4.24544 -2.5516,-7.68679 -1.2191,-3.44081 -2.2163,-6.4341 -2.2163,-6.65168 0,-0.7427 3.4693,-5.32262 5.0496,-6.66542 0.3059,-0.2602 0.5902,-0.73145 0.6319,-1.04733 0.2226,-1.6959 1.1474,-1.7488 2.1237,-0.1208 0.3953,0.65869 1.3005,2.52162 2.0117,4.13976 0.7112,1.61842 1.6012,3.46858 1.9784,4.11214 1.5337,2.61577 3.5118,6.55282 5.0223,9.9964 0.3491,0.7956 0.8966,1.81266 1.2166,2.26003 0.3196,0.44723 0.5814,1.07761 0.5814,1.40057 0,0.32296 -0.2618,0.94417 -0.5814,1.38043 z"
       id="path1424-0"
       inkscape:connector-curvature="0"
       sodipodi:nodetypes="cccccsccccssscsscccccccsc" />
    <path
       sodipodi:nodetypes="csccscsccsccccccccsccc"
       inkscape:connector-curvature="0"
       id="path1426-4"
       d="m 2165.6701,707.62571 c 0,0.96625 1.0095,4.2421 1.5672,5.08408 0.2764,0.41779 0.7636,1.49998 1.0826,2.40499 0.8257,2.34459 3.1946,7.68887 4.1107,9.27563 1.1694,2.02455 1.1819,2.23116 0.2556,4.14741 -0.4486,0.92792 -1.2253,2.53065 -1.7264,3.5616 -0.501,1.03109 -1.3893,2.64701 -1.9742,3.59076 -1.2645,2.0401 -3.4802,6.73179 -3.6611,7.75177 -3.3274,5.78873 -12.6184,2.40472 -12.6184,2.40472 l -0.8453,-2.03163 0.7346,-1.55913 c 0.4042,-0.85725 0.8805,-1.89542 1.0587,-2.30655 0.1801,-0.41169 1.2529,-2.09065 2.3879,-3.7317 1.1351,-1.64063 2.2143,-3.32375 2.3987,-3.74016 0.884,-1.9983 2.2857,-4.49674 2.5223,-4.49674 0.3674,0 0.3302,-1.04234 -0.076,-2.18409 -0.1888,-0.52651 -0.8403,-2.03469 -1.4487,-3.35125 -0.6082,-1.31656 -1.5919,-3.47079 -2.1861,-4.78721 -0.5941,-1.3167 -1.3615,-2.94387 -1.7053,-3.6159 -0.826,-1.6155 -2.5679,-6.30511 -2.5679,-6.91326 0,-0.26409 0.3548,-1.09274 0.7886,-1.84141 0,0 5.4586,-2.82682 11.9037,2.33807 z"
       style="fill:#000000;stroke-width:1" />
    <path
       sodipodi:nodetypes="cccssccccccscsccccssccsc"
       inkscape:connector-curvature="0"
       id="path1428-5"
       d="m 2353.2069,704.62728 c 0.5628,0.76713 0.772,1.14189 2.1511,3.84763 0.3529,0.69271 1.1884,2.17381 1.8562,3.2914 2.9321,4.90663 4.2957,7.78093 4.2957,9.05459 0,0.96638 -1.0097,4.24196 -1.5672,5.08407 -0.2764,0.4178 -0.7634,1.49998 -1.0824,2.405 -0.8262,2.34459 -3.1951,7.68887 -4.1112,9.27563 0,0 15.3764,11.46166 11.4676,3.59034 -0.3672,0 -0.3301,-1.04247 0.076,-2.18394 0.1887,-0.52666 0.8399,-2.03483 1.4483,-3.35125 0.6085,-1.3167 1.5924,-3.47094 2.1862,-4.7875 0.5943,-1.31642 1.3615,-2.94358 1.7053,-3.61589 0.8262,-1.6155 2.5682,-6.30497 2.5682,-6.91312 0,-0.26396 -0.355,-1.09274 -0.789,-1.84141 -0.9484,-1.6373 -1.6264,-3.03065 -2.0849,-4.28487 -0.1868,-0.51179 -0.547,-1.21478 -0.7998,-1.5626 -0.2527,-0.34781 -0.8653,-1.40626 -1.3615,-2.35251 -0.496,-0.94639 -0.9939,-1.72047 -1.1065,-1.72047 -0.1125,0 -0.2065,-0.17564 -0.2065,-0.3928 0,-0.21522 -0.2935,-0.78852 -0.6528,-1.27199 -1.0239,-1.37807 -1.1093,-1.77379 -0.7305,-3.38679 0,0 -11.679,-6.11947 -13.8476,-0.26368 0,0.32296 0.2615,0.94403 0.5814,1.3803 z"
       style="fill:#000000;stroke-width:1" />
    <path
       style="fill:#000000;fill-opacity:1;stroke-width:1"
       d="m 2251.2573,703.95053 c -0.3356,0.80838 -0.3613,1.08093 -0.147,1.56677 0.1427,0.32323 0.2596,0.88113 0.2596,1.23922 0,0.66522 0.9433,2.98135 1.87,4.59311 0.284,0.49374 1.6694,2.62867 3.0777,4.74417 1.4095,2.11563 3.0379,4.74987 3.6199,5.85385 0.5817,1.10385 1.3194,2.44651 1.6394,2.9833 0.3199,0.53707 0.5817,1.10065 0.5817,1.25297 0,0.27561 -0.3669,0.78074 -3.3877,4.66503 -0.874,1.12412 -2.5799,3.52495 -3.7905,5.33511 -4.9625,7.41937 -6.2631,9.19774 -7.2425,9.89962 -1.4063,1.00804 -2.1227,0.95 -2.7432,-0.22146 -0.2749,-0.51902 -0.893,-1.5626 -1.3735,-2.31905 -0.4809,-0.75603 -1.1483,-1.99067 -1.4838,-2.74309 -0.3353,-0.7527 -0.9654,-1.81003 -1.4001,-2.34987 -0.435,-0.53998 -0.7905,-1.22714 -0.7905,-1.52706 0,-0.50777 1.0203,-1.47998 1.5661,-1.49206 0.125,0 0.4653,-0.35337 0.7505,-0.77839 0.2852,-0.42501 1.2374,-1.59856 2.1159,-2.60743 0.8779,-1.00915 2.3453,-2.85473 3.2606,-4.10159 l 1.6646,-2.26684 -0.4658,-1.29143 c -0.2562,-0.71007 -0.9039,-2.18339 -1.4392,-3.27363 -0.5355,-1.09051 -1.1701,-2.38638 -1.4103,-2.88013 -0.2399,-0.49361 -0.4976,-0.965 -0.5726,-1.04706 -0.2293,-0.25339 -2.8364,-6.6675 -4.1203,-10.13982 -1.3349,-3.6102 -1.3275,-3.39304 -0.1955,-5.71834 0,0 7.8404,-0.65647 10.1575,2.6241 z"
       id="path1430-4"
       inkscape:connector-curvature="0"
       sodipodi:nodetypes="cccsssccsssscsccscccccccsccc" />
    <path
       sodipodi:nodetypes="ccsscccccscsccccccccscc"
       inkscape:connector-curvature="0"
       id="path1432-2"
       d="m 2236.0277,708.06267 c -0.1976,1.12564 1.2737,5.01534 3.7206,9.82186 0.5865,1.15202 1.3461,2.83515 1.688,3.74016 0.3421,0.90515 0.8551,2.01969 1.1406,2.47678 0.2853,0.45709 0.6429,1.26491 0.7939,1.79531 0.1515,0.53026 0.4946,1.38057 0.7638,1.89001 0.7609,1.44152 0.6415,2.30599 -0.5451,3.94982 -0.5687,0.78755 -1.2153,1.85362 -1.4371,2.36917 -0.2224,0.51582 -0.97,1.84363 -1.6631,2.95108 -0.6931,1.10746 -1.3968,2.29586 -1.5634,2.64104 -0.1669,0.3449 -0.8332,1.51956 -1.481,2.60966 -0.6477,1.09051 -1.5105,2.61077 -1.9178,3.3786 -0.4075,0.76769 -0.8411,1.55857 -0.9641,1.75754 -0.1208,0.1998 -0.4064,0.80227 -0.6297,1.34031 0,0 -14.2408,5.08518 -10.1573,-2.62438 0.8052,-1.65479 4.4337,-7.67915 6.1278,-10.17287 1.6419,-2.41666 2.4951,-4.1935 2.3653,-4.92579 -0.065,-0.36795 -0.7698,-1.86737 -1.5653,-3.33195 -0.7954,-1.46485 -1.9245,-3.87526 -2.5092,-5.35635 -1.6779,-4.2521 -3.8641,-9.69079 -4.7853,-11.90543 l -0.8453,-2.03163 0.7346,-1.55899 c 0,0 2.9083,-6.09017 12.7291,1.18605 z"
       style="fill:#000000;fill-opacity:1;stroke-width:1" />
    <rect
       style="opacity:1;fill:none;fill-opacity:1;stroke:#000000;stroke-width:0.58218384;stroke-linecap:round;stroke-linejoin:miter;stroke-miterlimit:4;stroke-dasharray:none;stroke-opacity:1"
       id="rect1223-4-7"
       width="555.62164"
       height="346.03546"
       x="1908.269"
       y="1059.8832" />
    <flowRoot
       xml:space="preserve"
       id="flowRoot850-8-7"
       style="font-style:normal;font-weight:normal;font-size:40px;line-height:1.25;font-family:sans-serif;letter-spacing:0px;word-spacing:0px;fill:#000000;fill-opacity:1;stroke:none"
       transform="matrix(0.26458333,0,0,0.26458333,636.69706,310.23201)"><flowRegion
         id="flowRegion852-0-2"><rect
           id="rect854-9-3"
           width="1293.8774"
           height="1161.5262"
           x="5360.4824"
           y="3013.4272" /></flowRegion><flowPara
         style="font-style:normal;font-variant:normal;font-weight:normal;font-stretch:normal;font-size:42.66666794px;line-height:1.25;font-family:sans-serif;-inkscape-font-specification:'sans-serif, Normal';font-variant-ligatures:normal;font-variant-caps:normal;font-variant-numeric:normal;font-feature-settings:normal;text-align:start;writing-mode:lr-tb;text-anchor:start"
         id="flowPara1478" /><flowPara
         style="font-style:normal;font-variant:normal;font-weight:normal;font-stretch:normal;font-size:32px;line-height:1.25;font-family:Steps-Mono;-inkscape-font-specification:Steps-Mono;font-variant-ligatures:normal;font-variant-caps:normal;font-variant-numeric:normal;font-feature-settings:normal;text-align:start;writing-mode:lr-tb;text-anchor:start"
         id="flowPara1500" /><flowPara
         style="font-style:normal;font-variant:normal;font-weight:normal;font-stretch:normal;font-size:32px;line-height:1.25;font-family:Steps-Mono;-inkscape-font-specification:Steps-Mono;font-variant-ligatures:normal;font-variant-caps:normal;font-variant-numeric:normal;font-feature-settings:normal;text-align:start;writing-mode:lr-tb;text-anchor:start"
         id="flowPara1502"><flowSpan
   style="font-style:normal;font-variant:normal;font-weight:normal;font-stretch:normal;font-size:32px;font-family:Steps-Mono;-inkscape-font-specification:Steps-Mono;baseline-shift:super"
   id="flowSpan1542">1. </flowSpan>DiVersions started with a worksession in December 2016, organised in collaboration with the Museum for Arts and History. Documentation: http://constantvzw.org/w/?u=http://media.constantvzw.org/wefts/41/</flowPara><flowPara
         style="font-style:normal;font-variant:normal;font-weight:normal;font-stretch:normal;font-size:32px;line-height:1.25;font-family:Steps-Mono;-inkscape-font-specification:Steps-Mono;font-variant-ligatures:normal;font-variant-caps:normal;font-variant-numeric:normal;font-feature-settings:normal;text-align:start;writing-mode:lr-tb;text-anchor:start"
         id="flowPara1504"><flowSpan
   style="font-style:normal;font-variant:normal;font-weight:normal;font-stretch:normal;font-size:32px;font-family:Steps-Mono;-inkscape-font-specification:Steps-Mono;baseline-shift:super"
   id="flowSpan1544">2</flowSpan>. &quot;The language of diversity might have efficacy as a 'coping mechanism' for dealing with an actually conflicting heterogeneity&quot;. Himani Bannerji quoted in: Sara Ahmed, (2007) On Being Included: Racism and Diversity in Institutional Life</flowPara><flowPara
         style="font-style:normal;font-variant:normal;font-weight:normal;font-stretch:normal;font-size:32px;line-height:1.25;font-family:Steps-Mono;-inkscape-font-specification:Steps-Mono;font-variant-ligatures:normal;font-variant-caps:normal;font-variant-numeric:normal;font-feature-settings:normal;text-align:start;writing-mode:lr-tb;text-anchor:start"
         id="flowPara1506"><flowSpan
   style="font-style:normal;font-variant:normal;font-weight:normal;font-stretch:normal;font-size:32px;font-family:Steps-Mono;-inkscape-font-specification:Steps-Mono;baseline-shift:super"
   id="flowSpan1546">3.</flowSpan> There is a interesting historicity just in the name of the museum which was originally called Palace of the colonies to pass by various names until today's “Africa Museum”. This evolution transpires as an attempt to further away the institution from its colonial roots and transform it into a museum of Africa, the land and its people. The succession of those names works as an meaningful archive of the museum’s slow evolution struggling to respond to its environment.UNESCO defines Cultural heritage as &quot;the legacy of physical artifacts and intangible attributes of a group or society that are inherited from past generations, maintained in the present and bestowed for the benefit of future generations.&quot; http://www.unesco.org/new/en/cairo/culture/tangible-cultural-heritage/</flowPara><flowPara
         style="font-style:normal;font-variant:normal;font-weight:normal;font-stretch:normal;font-size:32px;line-height:1.25;font-family:Steps-Mono;-inkscape-font-specification:Steps-Mono;font-variant-ligatures:normal;font-variant-caps:normal;font-variant-numeric:normal;font-feature-settings:normal;text-align:start;writing-mode:lr-tb;text-anchor:start"
         id="flowPara1508" /></flowRoot>    <flowRoot
       xml:space="preserve"
       id="flowRoot850-8-5"
       style="font-style:normal;font-weight:normal;font-size:40px;line-height:1.25;font-family:sans-serif;letter-spacing:0px;word-spacing:0px;fill:#000000;fill-opacity:1;stroke:none"
       transform="matrix(0.26458333,0,0,0.26458333,597.80098,268.74596)"><flowRegion
         id="flowRegion852-0-3"><rect
           id="rect854-9-9"
           width="1526.0021"
           height="321.84412"
           x="5360.4824"
           y="3013.4272" /></flowRegion><flowPara
         id="flowPara856-7-1"
         style="font-style:normal;font-variant:normal;font-weight:normal;font-stretch:normal;font-size:42.66666794px;line-height:3.77952766px;font-family:sans-serif;-inkscape-font-specification:'sans-serif, Normal';font-variant-ligatures:normal;font-variant-caps:normal;font-variant-numeric:normal;font-feature-settings:normal;text-align:start;writing-mode:lr-tb;text-anchor:start">DiVersions is inspired by the software-practice of ‘versioning’, as a way to experiment with online collections of cultural institutions. It approaches these collections as potential sites for decolonial and intersectional practice, that could and should allow for conflict, invite collaboration, and make space for other narratives.</flowPara><flowPara
         id="flowPara858-9-8"
         style="font-style:normal;font-variant:normal;font-weight:normal;font-stretch:normal;font-size:42.66666794px;line-height:3.77952766px;font-family:sans-serif;-inkscape-font-specification:'sans-serif, Normal';font-variant-ligatures:normal;font-variant-caps:normal;font-variant-numeric:normal;font-feature-settings:normal;text-align:start;writing-mode:lr-tb;text-anchor:start" /><flowPara
         id="flowPara860-9-8"
         style="font-style:normal;font-variant:normal;font-weight:normal;font-stretch:normal;font-size:42.66666794px;line-height:3.77952766px;font-family:sans-serif;-inkscape-font-specification:'sans-serif, Normal';font-variant-ligatures:normal;font-variant-caps:normal;font-variant-numeric:normal;font-feature-settings:normal;text-align:start;writing-mode:lr-tb;text-anchor:start">DiVersions asks questions such as: How can different orders coexist in online collections? In what way do we make room for material and immaterial heritage of the future, for things that are felt to be beyond the scope of museums and archives, or for other things that are consciously being ignored? How can these digital environments allow us to open up a discussion on relations between categorisation, colonisation and heritage? How can online collections accommodate radically different, and sometimes opposing perspectives?</flowPara><flowPara
         id="flowPara862-3-7"
         style="font-style:normal;font-variant:normal;font-weight:normal;font-stretch:normal;font-size:42.66666794px;line-height:3.77952766px;font-family:sans-serif;-inkscape-font-specification:'sans-serif, Normal';font-variant-ligatures:normal;font-variant-caps:normal;font-variant-numeric:normal;font-feature-settings:normal;text-align:start;writing-mode:lr-tb;text-anchor:start" /><flowPara
         id="flowPara864-2-0"
         style="font-style:normal;font-variant:normal;font-weight:normal;font-stretch:normal;font-size:42.66666794px;line-height:1.25;font-family:sans-serif;-inkscape-font-specification:'sans-serif, Normal';font-variant-ligatures:normal;font-variant-caps:normal;font-variant-numeric:normal;font-feature-settings:normal;text-align:start;writing-mode:lr-tb;text-anchor:start"><flowSpan
   style="font-size:42.66666794px;line-height:3.77952766px"
   id="flowSpan870-4-5">We organised the project around seven artistic experiments that evolved in response to specific e-collections such as WikiMedia, the Carmentis database from the Museum for Art and History and the website of Werkplaats immaterieel erfgoed. Using a variety of artistic strategies, the projects test out in practice how techniques and technologies of networked collaboration might generate other imaginations. The projects are collectively </flowSpan>developed in dialogue with each other and in conversation with partner institutions. DiVersions unfolds in two subsequent public installations, first in De Pianofabriek in Brussels and later in De Krook in Ghent. Each of the two versions is accompanied by a version of a publication, a workshop and a public discussion.With the neologism 'DiVersions' we wanted to allude to the possibility that technologies of 'versioning' might foreground divergent histories.[1] Version-control systems, Wikis, etherpads and other digital writing tools save log files and so-called ‘diffs’ routinely, potentially changing linear relations between original and copy, redefining questions of authorship and the archive. Meticulously logged workflows promise to make the process of shared editing transparent since any action can be reversed or repeated at any time; errors or unwanted inputs can be later corrected. Even if the conventional narrative of 'versioning' is one of streamlining collaboration and producing consensus, these techniques and technologies inherently pay attention to difference. In Dutch, this became 'di-versies' as a play on divergent or diverse versions. Translated to English and French, DiVersions also evokes 'diversity', a term that especially in institutional contexts started to circulate as a blanket term for covering up issues of inequality and oppression.[2]. It is for this reason that we decided to explicitly articulate the project as a decolonial and intersectional practice. </flowPara><flowPara
         id="flowPara866-3-2"
         style="font-style:normal;font-variant:normal;font-weight:normal;font-stretch:normal;font-size:42.66666794px;line-height:1.25;font-family:sans-serif;-inkscape-font-specification:'sans-serif, Normal';font-variant-ligatures:normal;font-variant-caps:normal;font-variant-numeric:normal;font-feature-settings:normal;text-align:start;writing-mode:lr-tb;text-anchor:start" /><flowPara
         id="flowPara868-7-7"
         style="font-style:normal;font-variant:normal;font-weight:normal;font-stretch:normal;font-size:42.66666794px;line-height:1.25;font-family:sans-serif;-inkscape-font-specification:'sans-serif, Normal';font-variant-ligatures:normal;font-variant-caps:normal;font-variant-numeric:normal;font-feature-settings:normal;text-align:start;writing-mode:lr-tb;text-anchor:start" /></flowRoot>  </g>
</svg>
