<?xml version="1.0" encoding="UTF-8" standalone="no"?>
<!-- Created with Inkscape (http://www.inkscape.org/) -->

<svg
   xmlns:dc="http://purl.org/dc/elements/1.1/"
   xmlns:cc="http://creativecommons.org/ns#"
   xmlns:rdf="http://www.w3.org/1999/02/22-rdf-syntax-ns#"
   xmlns:svg="http://www.w3.org/2000/svg"
   xmlns="http://www.w3.org/2000/svg"
   xmlns:sodipodi="http://sodipodi.sourceforge.net/DTD/sodipodi-0.dtd"
   xmlns:inkscape="http://www.inkscape.org/namespaces/inkscape"
   width="34mm"
   height="59mm"
   viewBox="0 0 34 59"
   version="1.1"
   id="svg2631"
   inkscape:version="0.92.3 (2405546, 2018-03-11)"
   sodipodi:docname="4.svg">
  <defs
     id="defs2625" />
  <sodipodi:namedview
     id="base"
     pagecolor="#ffffff"
     bordercolor="#666666"
     borderopacity="1.0"
     inkscape:pageopacity="0.0"
     inkscape:pageshadow="2"
     inkscape:zoom="0.70483311"
     inkscape:cx="162.23178"
     inkscape:cy="-48.242122"
     inkscape:document-units="mm"
     inkscape:current-layer="layer1"
     showgrid="false"
     inkscape:window-width="1920"
     inkscape:window-height="1016"
     inkscape:window-x="0"
     inkscape:window-y="27"
     inkscape:window-maximized="1" />
  <metadata
     id="metadata2628">
    <rdf:RDF>
      <cc:Work
         rdf:about="">
        <dc:format>image/svg+xml</dc:format>
        <dc:type
           rdf:resource="http://purl.org/dc/dcmitype/StillImage" />
        <dc:title></dc:title>
      </cc:Work>
    </rdf:RDF>
  </metadata>
  <g
     inkscape:label="Layer 1"
     inkscape:groupmode="layer"
     id="layer1"
     transform="translate(0,-238)">
    <path
       sodipodi:nodetypes="csccscsccsccccccccsccc"
       inkscape:connector-curvature="0"
       id="path2169"
       d="m 19.838973,245.95585 c 0,1.1652 1.2177,5.1158 1.8902,6.131 0.3338,0.5041 0.9209,1.8091 1.3054,2.9006 0.9957,2.8276 3.8526,9.2727 4.9577,11.186 1.4099,2.4416 1.425,2.6907 0.3082,5.0017 -0.5412,1.1191 -1.4778,3.0522 -2.0821,4.2952 -0.6043,1.2437 -1.6756,3.1923 -2.3807,4.3303 -1.5252,2.4604 -4.1972,8.1185 -4.4155,9.3487 -4.0126,6.9811 -15.2172997,2.9002 -15.2172997,2.9002 l -1.0196,-2.4504 0.886,-1.8803 c 0.4872,-1.0335 1.0618,-2.2857 1.2768,-2.7814 0.2164,-0.4967 1.51081,-2.5212 2.87971,-4.5006 1.36879,-1.9786 2.6701997,-4.0082 2.8928897,-4.5105 1.06611,-2.4097 2.7564,-5.4229 3.0418,-5.4229 0.4428,0 0.3981,-1.257 -0.092,-2.6339 -0.2275,-0.6351 -1.01369,-2.4537 -1.7475,-4.0416 -0.73339,-1.5879 -1.9195,-4.1858 -2.6360897,-5.7733 -0.71651,-1.5879 -1.64221,-3.5504 -2.05671,-4.3605 -0.99609,-1.9485 -3.0966,-7.6041 -3.0966,-8.3375 0,-0.3192 0.4278,-1.3178 0.9507,-2.2207 0,0 6.5834097,-3.4091 14.3557997,2.8199 z"
       style="fill:#c27b11;fill-opacity:1;stroke-width:0.26458329;stroke-miterlimit:4;stroke-dasharray:none"
       inkscape:export-filename="/home/femke/Documents/OSP/work.diversions/Arrows/path2169.png"
       inkscape:export-xdpi="150"
       inkscape:export-ydpi="150" />
  </g>
</svg>
