<?xml version="1.0" encoding="UTF-8" standalone="no"?>
<!-- Created with Inkscape (http://www.inkscape.org/) -->

<svg
   xmlns:dc="http://purl.org/dc/elements/1.1/"
   xmlns:cc="http://creativecommons.org/ns#"
   xmlns:rdf="http://www.w3.org/1999/02/22-rdf-syntax-ns#"
   xmlns:svg="http://www.w3.org/2000/svg"
   xmlns="http://www.w3.org/2000/svg"
   xmlns:sodipodi="http://sodipodi.sourceforge.net/DTD/sodipodi-0.dtd"
   xmlns:inkscape="http://www.inkscape.org/namespaces/inkscape"
   width="34mm"
   height="59mm"
   viewBox="0 0 34 59"
   version="1.1"
   id="svg2631"
   inkscape:version="0.92.3 (2405546, 2018-03-11)"
   sodipodi:docname="5.svg">
  <defs
     id="defs2625" />
  <sodipodi:namedview
     id="base"
     pagecolor="#ffffff"
     bordercolor="#666666"
     borderopacity="1.0"
     inkscape:pageopacity="0.0"
     inkscape:pageshadow="2"
     inkscape:zoom="0.70483311"
     inkscape:cx="162.23178"
     inkscape:cy="-48.242122"
     inkscape:document-units="mm"
     inkscape:current-layer="layer1"
     showgrid="false"
     inkscape:window-width="1920"
     inkscape:window-height="1016"
     inkscape:window-x="0"
     inkscape:window-y="27"
     inkscape:window-maximized="1" />
  <metadata
     id="metadata2628">
    <rdf:RDF>
      <cc:Work
         rdf:about="">
        <dc:format>image/svg+xml</dc:format>
        <dc:type
           rdf:resource="http://purl.org/dc/dcmitype/StillImage" />
        <dc:title></dc:title>
      </cc:Work>
    </rdf:RDF>
  </metadata>
  <g
     inkscape:label="Layer 1"
     inkscape:groupmode="layer"
     id="layer1"
     transform="translate(0,-238)">
    <path
       sodipodi:nodetypes="cccccsccccssscsscccccccsc"
       inkscape:connector-curvature="0"
       id="path2167"
       d="m 29.952713,264.02602 c -0.6788,-0.9253 -0.9316,-1.3773 -2.5943,-4.6407 -0.426,-0.8351 -1.4331,-2.6214 -2.2387,-3.969 -3.5357,-5.9175 -5.1808,-9.3835 -5.1808,-10.9197 0,0 -7.0472,-2.8308 -15.3062001,0.5992 0,0.3192 0.4282,1.3175 0.9514,2.2207 1.1436,1.9742 1.9613,3.6546 2.5142,5.1673 0.2238,0.6174 0.6597,1.4653 0.9646,1.8847 0.3045,0.4193 1.0434001,1.6957 1.6422001,2.8371 0.598,1.141 1.1986,2.0747 1.3343,2.0747 0.1358,0 0.2458,0.2128 0.2458,0.4737 0,0.2605 0.3559,0.9506 0.7874,1.5336 1.2353,1.6623 1.3377,2.1393 0.8809,4.0849 -0.2238,0.9484 -1.6077,5.1195 -3.0775,9.2697 -1.4701001,4.1495 -2.6727001,7.7597 -2.6727001,8.0216 0,0.896 4.1839001,6.4194 6.0899001,8.0389 0.3687,0.3118 0.7118,0.882 0.762,1.2628 0.2679,2.045 1.3836,2.1092 2.5613,0.1467 0.4766,-0.7939 1.568,-3.0407 2.4258,-4.9925 0.8574,-1.9515 1.9313,-4.1829 2.3859,-4.9589 1.8498,-3.1548 4.2353,-7.9023 6.0569,-12.0555 0.4208,-0.9598 1.0809,-2.1863 1.4672,-2.7256 0.3856,-0.5397 0.7011,-1.2995 0.7011,-1.6891 0,-0.3893 -0.3155,-1.1385 -0.7011,-1.6646 z"
       style="fill:#c27b11;fill-opacity:1;stroke:none;stroke-width:0.26458329;stroke-miterlimit:4;stroke-dasharray:none"
       inkscape:export-filename="/home/femke/Documents/OSP/work.diversions/Arrows/path2167.png"
       inkscape:export-xdpi="150"
       inkscape:export-ydpi="150" />
  </g>
</svg>
