<?xml version="1.0" encoding="UTF-8" standalone="no"?>
<!-- Created with Inkscape (http://www.inkscape.org/) -->

<svg
   xmlns:dc="http://purl.org/dc/elements/1.1/"
   xmlns:cc="http://creativecommons.org/ns#"
   xmlns:rdf="http://www.w3.org/1999/02/22-rdf-syntax-ns#"
   xmlns:svg="http://www.w3.org/2000/svg"
   xmlns="http://www.w3.org/2000/svg"
   xmlns:sodipodi="http://sodipodi.sourceforge.net/DTD/sodipodi-0.dtd"
   xmlns:inkscape="http://www.inkscape.org/namespaces/inkscape"
   width="34mm"
   height="59mm"
   viewBox="0 0 34 59"
   version="1.1"
   id="svg2631"
   inkscape:version="0.92.3 (2405546, 2018-03-11)"
   sodipodi:docname="8.svg">
  <defs
     id="defs2625" />
  <sodipodi:namedview
     id="base"
     pagecolor="#ffffff"
     bordercolor="#666666"
     borderopacity="1.0"
     inkscape:pageopacity="0.0"
     inkscape:pageshadow="2"
     inkscape:zoom="0.70483311"
     inkscape:cx="162.23178"
     inkscape:cy="-48.242122"
     inkscape:document-units="mm"
     inkscape:current-layer="layer1"
     showgrid="false"
     inkscape:window-width="1920"
     inkscape:window-height="1016"
     inkscape:window-x="0"
     inkscape:window-y="27"
     inkscape:window-maximized="1" />
  <metadata
     id="metadata2628">
    <rdf:RDF>
      <cc:Work
         rdf:about="">
        <dc:format>image/svg+xml</dc:format>
        <dc:type
           rdf:resource="http://purl.org/dc/dcmitype/StillImage" />
        <dc:title></dc:title>
      </cc:Work>
    </rdf:RDF>
  </metadata>
  <g
     inkscape:label="Layer 1"
     inkscape:groupmode="layer"
     id="layer1"
     transform="translate(0,-238)">
    <path
       style="fill:#c27b11;fill-opacity:1;stroke-width:0.26458329;stroke-miterlimit:4;stroke-dasharray:none"
       d="m 21.334972,244.70323 c -0.2385,1.3575 1.5361,6.0482 4.487,11.845 0.7074,1.3894 1.6235,3.419 2.0355,4.5105 0.4127,1.0914 1.0313,2.4357 1.3758,2.9868 0.3449,0.5514 0.7753,1.5255 0.9572,2.1653 0.1835,0.6395 0.5966,1.665 0.9213,2.2791 0.9176,1.7387 0.7737,2.78099 -0.6575,4.7637 -0.6857,0.9495 -1.4657,2.2354 -1.7328,2.8569 -0.2678,0.6223 -1.17,2.2234 -2.0058,3.5592 -0.8361,1.3355 -1.6847,2.7685 -1.8854,3.1849 -0.2018,0.4161 -1.0049,1.8326 -1.786,3.1472 -0.7814,1.3153 -1.8219,3.1486 -2.3128,4.0746 -0.4917,0.9257 -1.0145,1.8796 -1.1631,2.1195 -0.1467,0.2422 -0.4898,0.9675 -0.759,1.6162 0,0 -17.1743997,6.1328 -12.2495997,-3.1648 0.9711,-1.9955 5.3469997,-9.2609 7.3897997,-12.2683 1.9801,-2.9146 3.0092,-5.0572 2.8525,-5.9403 -0.077,-0.44391 -0.9282,-2.2523 -1.8876,-4.0185 -0.9594,-1.7665 -2.3209,-4.6734 -3.0261,-6.4594 -2.0233997,-5.1279 -4.6597997,-11.6871 -5.7710997,-14.3577 l -1.0192,-2.4501 0.886,-1.8802 c 0,0 3.5074,-7.3447 15.3508997,1.4304 z"
       id="path2151"
       inkscape:connector-curvature="0"
       sodipodi:nodetypes="ccsscccccscsccccccccscc"
       inkscape:export-filename="/home/femke/Documents/OSP/work.diversions/Arrows/1.png"
       inkscape:export-xdpi="150"
       inkscape:export-ydpi="150" />
  </g>
</svg>
